<?xml version="1.0" encoding="UTF-8"?>
<svg inkscape:version="1.0.2 (e86c870879, 2021-01-15, custom)" sodipodi:docname="Halo_Infinite_logo.svg" version="1.1" viewBox="0 0 1968 536.1" xmlns="http://www.w3.org/2000/svg" xmlns:cc="http://creativecommons.org/ns#" xmlns:dc="http://purl.org/dc/elements/1.1/" xmlns:inkscape="http://www.inkscape.org/namespaces/inkscape" xmlns:rdf="http://www.w3.org/1999/02/22-rdf-syntax-ns#" xmlns:sodipodi="http://sodipodi.sourceforge.net/DTD/sodipodi-0.dtd">
<author>Vulphere</author>
<title>Halo Infinite logo</title>
 <metadata>
  <rdf:RDF>
   <cc:Work rdf:about="">
    <dc:format>image/svg+xml</dc:format>
    <dc:type rdf:resource="http://purl.org/dc/dcmitype/StillImage"/>
    <dc:title/>
   </cc:Work>
  </rdf:RDF>
 </metadata>
 <sodipodi:namedview bordercolor="#666666" borderopacity="1" gridtolerance="10" guidetolerance="10" inkscape:current-layer="g2694" inkscape:cx="-385.99143" inkscape:cy="1327.3294" inkscape:pageopacity="0" inkscape:pageshadow="2" inkscape:window-height="1014" inkscape:window-maximized="1" inkscape:window-width="1920" inkscape:window-x="0" inkscape:window-y="36" inkscape:zoom="0.19726604" objecttolerance="10" pagecolor="#ffffff" showgrid="false"/>
 <g transform="translate(-78.13 122.9)" inkscape:groupmode="layer" inkscape:label="Image">
  <path d="m89.21 282.4v-130.9h19.53v261.8h-19.53zm177 0v-130.9h19.43l54.96 83.76c30.23 46.07 63.67 97.07 74.31 113.3l19.35 29.58 0.1582-226.7h19.53v261.8h-19.53l-1.686-2.64c-0.9275-1.452-11.16-17.11-22.73-34.8-11.58-17.69-25.47-38.93-30.87-47.2-13.94-21.36-31.23-47.82-52.28-80-10.01-15.31-23.32-35.68-29.58-45.26l-11.38-17.42-0.0792 113.7-0.0791 113.7h-19.53zm345.3-6.4e-4v-130.9l156.4 0.1612v17.28l-136.9 0.1614v107.8h116.6v17.6h-116.6v118.7h-19.53zm286.3 6.4e-4v-130.9h19.53v261.8h-19.53zm177 0v-130.9h19.51l74.27 113.3c40.85 62.3 74.35 113.3 74.43 113.3 0.087 2e-3 0.1576-50.94 0.1576-113.2v-113.2l19.37-0.1692v261.8h-19.45l-11.66-17.84c-18.41-28.18-43.05-65.88-58.3-89.2-7.709-11.79-19-29.07-25.1-38.4-6.094-9.328-19.13-29.27-28.98-44.32-9.845-15.05-19.4-29.66-21.24-32.48l-3.336-5.12-0.158 227.4h-19.53zm345.3 0v-130.9h19.53v261.8h-19.53zm224.9 8.8v-122.1h-76.86v-17.6h173.6v17.6h-77.18v244.2h-19.53zm225.2-8.8v-130.9h156.2v17.6h-136.7v103.4h116.6v17.6h-116.6v105.6h136.7v17.6h-156.2z" style="fill:#040404;stroke-width:.3175"/>
  <path d="m1456 73.64-5.945-4.752-10.15-1.284c-19.15-2.421-35.67-5.123-44.4-7.263-6.057-1.485-5.618-0.46-5.633-13.16v-10.42h1.004c0.5523 0 2.766 0.3239 4.919 0.7198 19.23 3.535 35.84 5.735 57.58 7.625 17.57 1.527 39.7 1.973 49.19 0.9913 14.31-1.48 39.24-6.234 54.56-10.4 20.14-5.48 33.44-11.35 48.48-21.37 12.22-8.148 19.65-16.76 22.67-26.28 4.957-15.66-2.299-31.38-20.9-45.27-18.91-14.12-43.98-23.06-76.71-27.34-20.72-2.71-35.55-3.593-54.93-3.27-42.06 0.7019-72.65 5.653-101.9 16.49-6.962 2.58-20.1 9.002-26.09 12.75-9.238 5.783-16.33 12.27-21.57 19.72-1.974 2.808-3.333 4.401-3.872 4.543-0.6763 0.1779-1.777-0.5263-5.903-3.777-2.79-2.198-7.037-5.531-9.44-7.407-2.402-1.876-4.374-3.525-4.382-3.665-0.03-0.5008 4.075-6.231 6.967-9.724 3.62-4.373 10.76-11.34 14.84-14.49 6.555-5.052 13.01-8.92 24.15-14.46 13.54-6.741 18.64-8.722 34.14-13.28 4.61-1.355 8.571-2.67 8.802-2.922 8.019-8.755 9.742-10.48 10.87-10.89 1.502-0.542 13.04-2.498 23.46-3.975 20.25-2.872 37.79-3.937 64.94-3.94 24.74-2e-3 39.68 0.998 61.54 4.122 18.5 2.643 39.08 8.173 62.25 16.73 17.4 6.421 34.67 15.8 47.94 26.03 5.694 4.389 15.28 14 18.5 18.56 3.678 5.199 7.414 11.51 10.98 18.56 4.861 9.601 3.533 9.095 24.54 9.346l15.92 0.1897v19.6l-33.99 0.3563-1.668 1.153c-2.151 1.488-3.86 3.495-5.329 6.257-9.917 18.65-28.3 36.6-50.07 48.9-14.44 8.153-27.45 13.62-42.4 17.81-24.22 6.793-44.97 10.29-74.95 12.61-7.562 0.5862-13.65 0.7362-35.6 0.8767l-26.48 0.1693-5.945-4.752zm-1138-11.67c-0.1705-4.812-1.347-163-1.314-176.4v-4.246l30.49 0.2434c21.07 0.1682 30.84 0.3672 31.6 0.6436l1.111 0.4 0.2372 25.34c0.1309 13.94 0.2372 31.76 0.2372 39.6l2.5e-4 14.26 2.952 2.904 2.951 2.904 146.4 0.2343-0.1631-31.27-0.1631-31.27 3.536 7e-3c9.399 0.01853 22.78 2.104 30.16 4.697 3.79 1.332 10.84 4.813 14.11 6.967 4.908 3.233 10.97 9.696 15.02 16.01 3.478 5.428 5.083 9.609 5.406 14.08 0.1038 1.429 0.2829 29.18 0.3991 61.67l0.2124 59.07-68.21-0.1819-0.1828-72.87h-132.8l0.2587 36.53 0.2582 36.53h-82.32l-0.205-5.791zm583.3-30.54-33.41-36.39-68.69 0.2085-2.339 0.7899c-1.286 0.4345-2.916 1.235-3.62 1.779-2.241 1.73-28.6 30.26-56.83 61.5l-7.335 8.118-35.06-0.2409c-19.28-0.1325-35.12-0.293-35.19-0.3568-0.0718-0.0637 19.16-21.72 42.74-48.12 23.58-26.41 43.2-48.38 43.6-48.84l0.7332-0.8364 50.59 0.5524c27.82 0.3038 50.62 0.5084 50.67 0.4546 0.0463-0.05375-6.755-7.394-15.12-16.31-8.362-8.918-16.31-17.42-17.66-18.89l-2.461-2.672-11.63 11.57-14.31-0.3699c-7.871-0.2036-14.44-0.4954-14.59-0.6488-0.1529-0.1534 11.83-13.7 26.63-30.09l26.91-29.81h16.16l48.17 53.36c106.7 118.2 117.5 130.3 117.6 130.5 0 0.1232-11.71 0.3234-26.02 0.4446-14.31 0.1214-30.55 0.3155-36.08 0.4316l-10.06 0.211-33.41-36.39zm173.7 23.59-11.36-12.69v-41.74c2e-4 -22.96 0.1065-58.7 0.2398-79.43l0.2372-37.68h28.46l39.75 44.68v44.94c0 49.51-0.1181 46.82 2.236 51.29 1.356 2.575 4.707 5.971 7.554 7.655 1.127 0.6662 3.612 1.74 5.521 2.386 6.991 2.365 4.258 2.282 75.14 2.282h64.06l9.953 7.718c5.474 4.245 11.08 8.623 12.46 9.73l2.505 2.012 0.1969 11.07-36.23 0.237c-19.93 0.1304-70.68 0.2357-112.8 0.2343l-76.56-2e-3 -11.36-12.69zm396.8-53.03c-20.33-2.922-32.29-14.27-26.93-25.57 3.136-6.608 11.48-11.62 23.71-14.23 3.229-0.6903 4.861-0.8059 11.63-0.8231 8.293-0.02317 10.63 0.2328 16.54 1.798 6.952 1.84 12.73 4.932 16.48 8.826 6.009 6.233 6.077 13.35 0.1877 19.5-4.528 4.729-11.51 8.091-20.71 9.966-4.681 0.955-15.96 1.24-20.91 0.5284z" fill="#040404" stroke-width=".3558" sodipodi:nodetypes="ccssccsssscsssssssssssssssscssssssssscccssssssccccccssccsccccccssssccccccccccccccssscsssccscsscccscsccccsscccccsccccssssscscccsscccssscssssss"/>
 </g>
</svg>
